{
  "name": "swordsandwizardry",
  "title": "Swords & Wizardry",
  "description": "Swords & Wizardry for FoundryVTT!",
  "version": "0.0.1",
  "minimumCoreVersion": "0.5.5",
  "compatibleCoreVersion": "0.6.5",
  "templateVersion": 2,
  "author": "Epitacio (Epi) Camacho",
  "esmodules": ["module/swordsandwizardry.js"],
  "styles": ["css/swordsandwizardry.css"],
  "scripts": [],
  "packs": [],
  "languages": [
    {
      "lang": "en",
      "name": "English",
      "path": "lang/en.json"
    }
  ],
  "gridDistance": 5,
  "gridUnits": "ft",
  "primaryTokenAttribute": "health",
  "secondaryTokenAttribute": "power",
  "url": "",
  "manifest": "",
  "download": "",
  "license": "LICENSE.txt"
}
